…
```r
df_CPS$missing <- is.na(df_CPS$Married)
groupy_missing <- df_CPS %>% group_by(missing,Age) %>% summarise(counto=n())
groupy_missing
```

```
## Source: local data frame [82 x 3]
## Groups: missing [?]
## 
##    missing   Age counto
##      <lgl> <int>  <int>
## 1    FALSE    15   1795
## 2    FALSE    16   1751
## 3    FALSE    17   1764
## 4    FALSE    18   1596
## 5    FALSE    19   1517
## 6    FALSE    20   1398
## 7    FALSE    21   1525
## 8    FALSE    22   1536
## 9    FALSE    23   1638
## 10   FALSE    24   1627
## # ... with 72 more rows
```
…
Which state has a proportion of interviewees living in a non-metropolitan area closest to 30%?


  unanswered  
Which state has the largest proportion of non-metropolitan interviewees, ignoring states where all interviewees were non-metropolitan?

```r
groupy_state_metro <-df_CPS %>% group_by(State) %>% summarise(ratio_non_metro = sum(is.na(MetroAreaCode))/n()) %>% arrange(desc(ratio_non_metro))
groupy_state_metro
```

```
## # A tibble: 51 × 2
##            State ratio_non_metro
##           <fctr>           <dbl>
## 1         Alaska       1.0000000
## 2        Wyoming       1.0000000
## 3        Montana       0.8360791
## 4  West Virginia       0.7558552
## 5   North Dakota       0.7373860
## 6   South Dakota       0.7025000
## 7    Mississippi       0.6943089
## 8        Vermont       0.6523810
## 9          Maine       0.5983208
## 10      Nebraska       0.5813238
## # ... with 41 more rows
```
…
