…
```
## [1] 47
```
Problem 1.3 - Limiting to Teams Making the Playoffs
0 points possible (ungraded)
Because we're only analyzing teams that made the playoffs, use the subset() function to replace baseball with a data frame limited to teams that made the playoffs (so your subsetted data frame should still be called "baseball"). How many team/year pairs are included in the new dataset?

```r
df_playoff <- df %>% filter(Playoffs==1)
PlayoffTable <- df_playoff %>% group_by(Year) %>% summarise(NumCompetitors=n()) %>% arrange(desc(NumCompetitors)) 
PlayoffTable
```

```
## # A tibble: 47 × 2
##     Year NumCompetitors
##    <int>          <int>
## 1   2012             10
## 2   1996              8
## 3   1997              8
## 4   1998              8
## 5   1999              8
## 6   2000              8
## 7   2001              8
## 8   2002              8
## 9   2003              8
## 10  2004              8
## # ... with 37 more rows
```
…
